{
  "page": 1,
  "total_results": 56,
  "total_pages": 3,
  "results": [
    {
      "popularity": 83.025,
      "vote_count": 14283,
      "video": false,
      "poster_path": "/c24sv2weTHPsmDa7jEMN0m2P3RT.jpg",
      "id": 315635,
      "adult": false,
      "backdrop_path": "/vc8bCGjdVp0UbMNLzHnHSLRbBWQ.jpg",
      "original_language": "en",
      "original_title": "Spider-Man: Homecoming",
      "genre_ids": [
        28,
        12,
        18,
        878
      ],
      "title": "Spider-Man: Homecoming",
      "vote_average": 7.4,
      "overview": "Following the events of Captain America: Civil War, Peter Parker, with the help of his mentor Tony Stark, tries to balance his life as an ordinary high school student in Queens, New York City, with fighting crime as his superhero alter ego Spider-Man as a new threat, the Vulture, emerges.",
      "release_date": "2017-07-05"
    },
    {
      "popularity": 26.666,
      "vote_count": 11895,
      "video": false,
      "poster_path": "/gh4cZbhZxyTbgxQPxD0dOudNPTn.jpg",
      "id": 557,
      "adult": false,
      "backdrop_path": "/jHxCeXnSchAuwHnmVatTgqMYdX8.jpg",
      "original_language": "en",
      "original_title": "Spider-Man",
      "genre_ids": [
        28,
        14
      ],
      "title": "Spider-Man",
      "vote_average": 7.1,
      "overview": "After being bitten by a genetically altered spider, nerdy high school student Peter Parker is endowed with amazing powers to become the Amazing superhero known as Spider-Man.",
      "release_date": "2002-05-01"
    },
    {
      "popularity": 104.005,
      "vote_count": 7470,
      "video": false,
      "poster_path": "/4q2NNj4S5dG2RLF9CpXsej7yXl.jpg",
      "id": 429617,
      "adult": false,
      "backdrop_path": "/5myQbDzw3l8K9yofUXRJ4UTVgam.jpg",
      "original_language": "en",
      "original_title": "Spider-Man: Far from Home",
      "genre_ids": [
        28,
        12,
        878
      ],
      "title": "Spider-Man: Far from Home",
      "vote_average": 7.5,
      "overview": "Peter Parker and his friends go on a summer trip to Europe. However, they will hardly be able to rest - Peter will have to agree to help Nick Fury uncover the mystery of creatures that cause natural disasters and destruction throughout the continent.",
      "release_date": "2019-06-28"
    },
    {
      "popularity": 55.462,
      "vote_count": 8400,
      "video": false,
      "poster_path": "/c3e9e18SSlvFd1cQaGmUj5tqL5P.jpg",
      "id": 102382,
      "adult": false,
      "backdrop_path": "/rF3kAqk08zGSvs8m6hRwsi28nHg.jpg",
      "original_language": "en",
      "original_title": "The Amazing Spider-Man 2",
      "genre_ids": [
        28,
        12,
        14
      ],
      "title": "The Amazing Spider-Man 2",
      "vote_average": 6.4,
      "overview": "For Peter Parker, life is busy. Between taking out the bad guys as Spider-Man and spending time with the person he loves, Gwen Stacy, high school graduation cannot come quickly enough. Peter has not forgotten about the promise he made to Gwen’s father to protect her by staying away, but that is a promise he cannot keep. Things will change for Peter when a new villain, Electro, emerges, an old friend, Harry Osborn, returns, and Peter uncovers new clues about his past.",
      "release_date": "2014-04-16"
    },
    {
      "popularity": 23.08,
      "vote_count": 8628,
      "video": false,
      "poster_path": "/2jLxKF73SAPkyhIWrnv67IH7kJ1.jpg",
      "id": 559,
      "adult": false,
      "backdrop_path": "/6MQmtWk4cFwSDyNvIgoJRBIHUT3.jpg",
      "original_language": "en",
      "original_title": "Spider-Man 3",
      "genre_ids": [
        28,
        12,
        14
      ],
      "title": "Spider-Man 3",
      "vote_average": 6.2,
      "overview": "The seemingly invincible Spider-Man goes up against an all-new crop of villains—including the shape-shifting Sandman. While Spider-Man’s superpowers are altered by an alien organism, his alter ego, Peter Parker, deals with nemesis Eddie Brock and also gets caught up in a love triangle.",
      "release_date": "2007-05-01"
    },
    {
      "popularity": 21.861,
      "vote_count": 11836,
      "video": false,
      "poster_path": "/jIfkQNARYyERqRAq1p1c8xgePp4.jpg",
      "id": 1930,
      "adult": false,
      "backdrop_path": "/aMqSuMYZ9L3wOPq19vbb5FEv2Uf.jpg",
      "original_language": "en",
      "original_title": "The Amazing Spider-Man",
      "genre_ids": [
        28,
        12,
        14
      ],
      "title": "The Amazing Spider-Man",
      "vote_average": 6.5,
      "overview": "Peter Parker is an outcast high schooler abandoned by his parents as a boy, leaving him to be raised by his Uncle Ben and Aunt May. Like most teenagers, Peter is trying to figure out who he is and how he got to be the person he is today. As Peter discovers a mysterious briefcase that belonged to his father, he begins a quest to understand his parents' disappearance – leading him directly to Oscorp and the lab of Dr. Curt Connors, his father's former partner. As Spider-Man is set on a collision course with Connors' alter ego, The Lizard, Peter will make life-altering choices to use his powers and shape his destiny to become a hero.",
      "release_date": "2012-06-23"
    },
    {
      "popularity": 19.243,
      "vote_count": 0,
      "video": false,
      "poster_path": "/4dS40km5rcd4udAGJheU18ZeSfi.jpg",
      "id": 634649,
      "adult": false,
      "backdrop_path": null,
      "original_language": "en",
      "original_title": "Untitled Spider-Man Sequel",
      "genre_ids": [
        28,
        12,
        878
      ],
      "title": "Untitled Spider-Man Sequel",
      "vote_average": 0,
      "overview": "Sony Pictures Entertainment and The Walt Disney Company jointly announced that Marvel Studios and its President Kevin Feige will produce the third film in the \"Spider-Man: Homecoming\" series, starring Tom Holland. The film is scheduled to release on July 16, 2021.  The third film will see Peter Parker deal with the aftermath of Quentin Beck outing him as Spider-man, but also to deal with a familiar old foe who has joined a group of \"Sinister Six\" villains.",
      "release_date": "2021-11-04"
    },
    {
      "popularity": 10.015,
      "vote_count": 9641,
      "video": false,
      "poster_path": "/olxpyq9kJAZ2NU1siLshhhXEPR7.jpg",
      "id": 558,
      "adult": false,
      "backdrop_path": "/6al048Lat3eLVQOuKtc9h6Tu94d.jpg",
      "original_language": "en",
      "original_title": "Spider-Man 2",
      "genre_ids": [
        28,
        12,
        14
      ],
      "title": "Spider-Man 2",
      "vote_average": 7,
      "overview": "Peter Parker is going through a major identity crisis. Burned out from being Spider-Man, he decides to shelve his superhero alter ego, which leaves the city suffering in the wake of carnage left by the evil Doc Ock. In the meantime, Parker still can't act on his feelings for Mary Jane Watson, a girl he's loved since childhood.",
      "release_date": "2004-06-25"
    },
    {
      "popularity": 30.49,
      "vote_count": 7322,
      "video": false,
      "poster_path": "/iiZZdoQBEYBv6id8su7ImL0oCbD.jpg",
      "id": 324857,
      "adult": false,
      "backdrop_path": "/uUiId6cG32JSRI6RyBQSvQtLjz2.jpg",
      "original_language": "en",
      "original_title": "Spider-Man: Into the Spider-Verse",
      "genre_ids": [
        28,
        12,
        16,
        35,
        878
      ],
      "title": "Spider-Man: Into the Spider-Verse",
      "vote_average": 8.4,
      "overview": "Miles Morales is juggling his life between being a high school student and being a spider-man. When Wilson \"Kingpin\" Fisk uses a super collider, others from across the Spider-Verse are transported to this dimension.",
      "release_date": "2018-12-06"
    },
    {
      "popularity": 4.78,
      "vote_count": 3,
      "video": true,
      "poster_path": "/mEtyZBbVl0sx0y1blYuVDgeNLkr.jpg",
      "id": 270768,
      "adult": false,
      "backdrop_path": null,
      "original_language": "en",
      "original_title": "Daredevil vs. Spider-Man",
      "genre_ids": [
        28,
        12,
        16
      ],
      "title": "Daredevil vs. Spider-Man",
      "vote_average": 5.3,
      "overview": "Spider-Man and Daredevil team up to fight Kingpin.",
      "release_date": "2003-02-11"
    },
    {
      "popularity": 3.366,
      "vote_count": 44,
      "video": false,
      "poster_path": "/nyXfGIkJQgKhugxMVql15URobtt.jpg",
      "id": 225914,
      "adult": false,
      "backdrop_path": "/zlpZzccypkAYFZIyYLQcchl90ZC.jpg",
      "original_language": "en",
      "original_title": "The Amazing Spider-Man",
      "genre_ids": [
        28,
        12,
        80,
        14,
        878,
        10770
      ],
      "title": "The Amazing Spider-Man",
      "vote_average": 5.1,
      "overview": "When an extortionist threatens to force a multi-suicide unless a huge ransom is paid, only Peter Parker can stop him with his new powers as Spider-Man.",
      "release_date": "1977-09-14"
    },
    {
      "popularity": 2.567,
      "vote_count": 0,
      "video": false,
      "poster_path": "/nnTnxIPf163dJtVtIzmiIIddUWf.jpg",
      "id": 702958,
      "adult": false,
      "backdrop_path": "/xOQM9iNn6COIeuMtScikAVvCKOl.jpg",
      "original_language": "en",
      "original_title": "Spider-Man 4",
      "genre_ids": [
        28
      ],
      "title": "Spider-Man 4",
      "vote_average": 0,
      "overview": "Spider-Man returns to face his greatest challenge yet as he faces off against The Vulture.",
      "release_date": "2021-01-01"
    },
    {
      "popularity": 3.011,
      "vote_count": 19,
      "video": false,
      "poster_path": "/aQI0seRK4xyAwzYuLLw5s2Z7gGD.jpg",
      "id": 225938,
      "adult": false,
      "backdrop_path": "/sQyzDIbVelNAZqUZryhHOq3WUku.jpg",
      "original_language": "en",
      "original_title": "Spider-Man: The Dragon's Challenge",
      "genre_ids": [
        28,
        12,
        80,
        14,
        10770
      ],
      "title": "Spider-Man: The Dragon's Challenge",
      "vote_average": 4.1,
      "overview": "Two episodes of the TV series \"Spider Man\" edited together and released as a feature.",
      "release_date": "1981-06-25"
    },
    {
      "popularity": 3.128,
      "vote_count": 0,
      "video": true,
      "poster_path": "/xzik8xanEmkG4r9SxcM1hBvAKDT.jpg",
      "id": 706868,
      "adult": false,
      "backdrop_path": null,
      "original_language": "en",
      "original_title": "Spider-Man (Original Fan Film)",
      "genre_ids": [
        28,
        35,
        878,
        10749
      ],
      "title": "Spider-Man (Original Fan Film)",
      "vote_average": 0,
      "overview": "Based on the Hit Character from Marvel Comics!  Peter Parker is on top of the world. See, he's not just Peter Parker, he's Spider-Man! He swings through the streets of New York saving people every day. He meets Kate Bishop and romance blossoms, but that romance is threatened by Peter's secret and the arrival of Kraven the Hunter!",
      "release_date": "2021-07-09"
    },
    {
      "popularity": 0,
      "vote_count": 0,
      "video": false,
      "poster_path": "/fghc2xD5EHuUvEwWaiuCWKS6fJq.jpg",
      "id": 648994,
      "adult": false,
      "backdrop_path": "/joAs2SVJPjVeD2gqUT9g0VvgEWL.jpg",
      "original_language": "en",
      "original_title": "Spider-Man 2.1",
      "genre_ids": [
        28,
        35,
        18,
        14,
        878
      ],
      "title": "Spider-Man 2.1",
      "vote_average": 0,
      "overview": "Peter Parker is going through a major identity crisis. Burned out from being Spider-Man, he decides to shelve his superhero alter ego, which leaves the city suffering in the wake of carnage left by the evil Doc Ock. In the meantime, Parker still can’t act on his feelings for Mary Jane Watson, a girl he’s loved since childhood.",
      "release_date": "2007-04-17"
    },
    {
      "popularity": 4.347,
      "vote_count": 0,
      "video": false,
      "poster_path": "/8ycplQbTU6DRRwiG95lQEpYkOVg.jpg",
      "id": 569094,
      "adult": false,
      "backdrop_path": null,
      "original_language": "en",
      "original_title": "Spider-Man: Into the Spider-Verse Sequel",
      "genre_ids": [
        28,
        12,
        16,
        35,
        878
      ],
      "title": "Spider-Man: Into the Spider-Verse Sequel",
      "vote_average": 0,
      "overview": "A sequel to Spider-Man: Into the Spider Verse.",
      "release_date": "2022-10-06"
    },
    {
      "popularity": 2.544,
      "id": 50410,
      "video": true,
      "vote_count": 24,
      "vote_average": 7.3,
      "title": "Spider-Man: The Venom Saga",
      "release_date": "1994-06-07",
      "original_language": "en",
      "original_title": "Spider-Man: The Venom Saga",
      "genre_ids": [
        16
      ],
      "backdrop_path": null,
      "adult": false,
      "overview": "A space-shuttle crash-landing puts the famous web-slinger Spider-Man in contact with a living alien substance that bonds to his suit and enhances his super-powers. Unfortunately, the alien substance begins to change him and he feels the pull of evil, so discards the suit. The evil attaches itself to another host leading to an epic confrontation between good and evil.",
      "poster_path": "/ilmsQLtthtcD8EU1k25cp0xFQ9a.jpg"
    },
    {
      "popularity": 2.2,
      "vote_count": 24,
      "video": false,
      "poster_path": "/fb5R5DUOT4NfhZn8903c1gYGHJz.jpg",
      "id": 225925,
      "adult": false,
      "backdrop_path": "/srgd2QM79XO2wfabFYQgnMwIjIv.jpg",
      "original_language": "en",
      "original_title": "Spider-Man Strikes Back",
      "genre_ids": [
        28,
        12,
        14,
        10751,
        10770
      ],
      "title": "Spider-Man Strikes Back",
      "vote_average": 4.7,
      "overview": "At the New York State University, one of Peter Parker's tutors has accidentally given three students all the materials they need to create an atomic bomb. While Peter Parker tries to find out what's happened, the police suspect him of the crime, and Peter has to deal with an attractive journalist determined to get an interview with Spider-Man. Then dastardly millionaire Mr. White shows up, and will stop at nothing to get his hands on the atomic bomb. Spider-Man must defeat this scheming villain and stop him blowing up the World Trade Centre.",
      "release_date": "1978-12-21"
    },
    {
      "popularity": 1.302,
      "vote_count": 3,
      "video": true,
      "poster_path": "/h25J091pDVp1Tb0w6DhtcE3Hjqk.jpg",
      "id": 683164,
      "adult": false,
      "backdrop_path": "/e4Rx5eJ6RyLP25pzvoWTg3RJypj.jpg",
      "original_language": "en",
      "original_title": "Spider-Man 2.1",
      "genre_ids": [],
      "title": "Spider-Man 2.1",
      "vote_average": 9.3,
      "overview": "Peter Parker is beset with troubles in his failing personal life as he battles a brilliant scientist named Doctor Otto Octavius.",
      "release_date": "2007-04-17"
    },
    {
      "popularity": 1.818,
      "id": 467037,
      "video": false,
      "vote_count": 13,
      "vote_average": 7.6,
      "title": "Jack Black: Spider-Man",
      "release_date": "2002-06-06",
      "original_language": "en",
      "original_title": "Jack Black: Spider-Man",
      "genre_ids": [
        35
      ],
      "backdrop_path": null,
      "adult": false,
      "overview": "",
      "poster_path": "/wugeBkIJx6RPrZ2ngHXWYnitQu9.jpg"
    }
  ]
}