{
  "results": [
    {
      "popularity": 258.574,
      "vote_count": 110,
      "video": false,
      "poster_path": "/AsdB9A2XGalCZVjlyG9tRf03IfW.jpg",
      "id": 516486,
      "adult": false,
      "backdrop_path": "/xXBnM6uSTk6qqCf0SRZKXcga9Ba.jpg",
      "original_language": "en",
      "original_title": "Greyhound",
      "genre_ids": [
        28,
        18,
        10752
      ],
      "title": "Greyhound",
      "vote_average": 6.8,
      "overview": "A first-time captain leads a convoy of allied ships carrying thousands of soldiers across the treacherous waters of the “Black Pit” to the front lines of WW2. With no air cover protection for 5 days, the captain and his convoy must battle the surrounding enemy Nazi U-boats in order to give the allies a chance to win the war.",
      "release_date": "2020-07-10"
    },
    {
      "popularity": 127.3,
      "vote_count": 115,
      "video": false,
      "poster_path": "/hPkqY2EMqWUnFEoedukilIUieVG.jpg",
      "id": 531876,
      "adult": false,
      "backdrop_path": "/n1RohH2VoK1CdVI2fXvcP19dSlm.jpg",
      "original_language": "en",
      "original_title": "The Outpost",
      "genre_ids": [
        28,
        18,
        36,
        10752
      ],
      "title": "The Outpost",
      "vote_average": 7.1,
      "overview": "A small unit of U.S. soldiers, alone at the remote Combat Outpost Keating, located deep in the valley of three mountains in Afghanistan, battles to defend against an overwhelming force of Taliban fighters in a coordinated attack. The Battle of Kamdesh, as it was known, was the bloodiest American engagement of the Afghan War in 2009 and Bravo Troop 3-61 CAV became one of the most decorated units of the 19-year conflict.",
      "release_date": "2020-06-24"
    }
  ],
  "page": 1,
  "total_results": 608,
  "dates": {
    "maximum": "2020-07-12",
    "minimum": "2020-05-25"
  },
  "total_pages": 31
}